Ejercicios de estadística multivariante, parte II
…
\(\mathbf{X_2:}\) Número de productos comprados.

\(\mathbf{X_3:}\) Valor total de la compra en euros.

El equipo de análisis de datos ha recopilado información de los clientes y busca determinar si el conjunto de datos sigue una distribución normal multivariante, lo cual es un requisito fundamental para aplicar ciertos modelos estadísticos. Para verificar este supuesto, te piden que emplees la distancia de Mahalanobis al cuadrado como medida clave y que realices una prueba de bondad de ajuste con el fin de evaluar si los valores calculados se ajustan a la distribución esperada. Los datos se encuentran en clientes.

Respuesta

Leemos el csv

X<-read_csv("clientes.csv")
X

# A tibble: 100 × 3
   Tiempo_espera_minutos Numero_productos_comprados Valor_total_compra_euros
                   <dbl>                      <dbl>                    <dbl>
 1                 11.0                        2.88                    107. 
 2                  9.72                       4.37                    111. 
 3                 11.3                        4.49                    122. 
 4                 13.0                        3.80                    121. 
 5                  9.53                       4.76                     72.4
 6                  9.53                       5.61                     81.2
 7                 13.2                        7.83                    110. 
 8                 11.5                        5.26                    110. 
 9                  9.06                       5.39                    110. 
10                 11.1                        4.89                    177. 
# ℹ 90 more rows
…
